<?xml version="1.0" encoding="utf-8"?>
<!-- Generator: Adobe Illustrator 21.0.2, SVG Export Plug-In . SVG Version: 6.00 Build 0)  -->
<svg version="1.1" id="Layer_1" xmlns="http://www.w3.org/2000/svg" xmlns:xlink="http://www.w3.org/1999/xlink" x="0px" y="0px"
	 viewBox="0 0 400 500" style="enable-background:new 0 0 400 500;" xml:space="preserve">
<style type="text/css">
	.st0{fill:#EC4061;}
	.st1{fill:#FFFFFF;}
</style>
<g>
	<rect x="21.2" y="23.3" class="st0" width="357.6" height="357.6"/>
	<polygon class="st0" points="43.6,407.2 43.6,412.3 35.9,412.3 35.9,434.8 29.5,434.8 29.5,412.3 21.7,412.3 21.7,407.2 	"/>
	<polygon class="st0" points="67.8,407.2 67.8,412.1 56.5,412.1 56.5,418.6 65.2,418.6 65.2,423.3 56.5,423.3 56.5,429.9 
		67.8,429.9 67.8,434.8 50.1,434.8 50.1,407.2 	"/>
	<path class="st0" d="M93.8,427.6l0.5,0.1l0.4,0.3l2.5,2.7c-1.1,1.4-2.5,2.5-4.2,3.3c-1.7,0.7-3.7,1.1-5.9,1.1c-2.1,0-4-0.4-5.6-1.1
		s-3.1-1.7-4.2-3c-1.2-1.3-2-2.7-2.7-4.5c-0.6-1.7-0.9-3.6-0.9-5.6c0-2.1,0.4-3.9,1.1-5.7c0.7-1.7,1.7-3.2,3-4.5
		c1.3-1.2,2.8-2.2,4.5-2.9c1.8-0.7,3.7-1,5.8-1c1,0,2,0.1,2.9,0.3c0.9,0.2,1.8,0.4,2.6,0.8c0.8,0.3,1.5,0.7,2.2,1.2
		c0.7,0.4,1.3,0.9,1.8,1.5l-2.2,2.9l-0.5,0.5l-0.8,0.2l-0.6-0.2l-0.6-0.4l-0.7-0.5l-1-0.5c-0.4-0.1-0.8-0.3-1.3-0.4
		c-0.5-0.1-1.1-0.2-1.8-0.2c-1.2,0-2.2,0.2-3.2,0.6c-1,0.4-1.8,1-2.5,1.8c-0.7,0.8-1.2,1.7-1.6,2.8c-0.4,1.1-0.6,2.3-0.6,3.7
		c0,1.4,0.2,2.7,0.6,3.8c0.4,1.1,0.9,2,1.6,2.8c0.7,0.7,1.4,1.3,2.3,1.7c0.9,0.4,1.8,0.6,2.8,0.6c0.6,0,1.1,0,1.6-0.1
		c0.5-0.1,0.9-0.2,1.3-0.3l1.2-0.5l1.1-0.8l0.5-0.3L93.8,427.6z"/>
	<path class="st0" d="M108,407.2l0.5,0.1l0.4,0.3l0.5,0.5l13.1,16.6c-0.1-0.5-0.1-1-0.1-1.5c0-0.5,0-1,0-1.4v-14.6h5.6v27.6h-3.3
		c-0.5,0-0.9-0.1-1.2-0.2l-1-0.8l-13-16.4c0,0.5,0.1,0.9,0.1,1.4c0,0.5,0,0.9,0,1.3v14.8h-5.6v-27.6h3.4L108,407.2z"/>
	<path class="st0" d="M163.5,421c0,2-0.3,3.8-1,5.6c-0.7,1.7-1.7,3.2-2.9,4.5c-1.3,1.3-2.8,2.3-4.5,3c-1.8,0.7-3.7,1.1-5.9,1.1
		c-2.1,0-4.1-0.4-5.9-1.1c-1.8-0.7-3.3-1.7-4.5-3c-1.3-1.3-2.2-2.8-2.9-4.5c-0.7-1.7-1-3.6-1-5.6c0-2,0.3-3.8,1-5.6
		c0.7-1.7,1.7-3.2,2.9-4.5c1.3-1.3,2.8-2.3,4.5-3c1.8-0.7,3.7-1.1,5.9-1.1c2.1,0,4.1,0.4,5.9,1.1c1.8,0.7,3.3,1.7,4.5,3
		c1.2,1.3,2.2,2.8,2.9,4.5C163.2,417.2,163.5,419,163.5,421 M157,421c0-1.4-0.2-2.6-0.5-3.7c-0.4-1.1-0.9-2-1.5-2.8
		c-0.7-0.8-1.5-1.3-2.4-1.7c-1-0.4-2.1-0.6-3.3-0.6c-1.2,0-2.3,0.2-3.3,0.6c-1,0.4-1.8,1-2.4,1.7c-0.7,0.8-1.2,1.7-1.5,2.8
		c-0.4,1.1-0.5,2.3-0.5,3.7c0,1.4,0.2,2.6,0.5,3.7c0.4,1.1,0.9,2,1.5,2.8c0.7,0.8,1.5,1.3,2.4,1.7c1,0.4,2.1,0.6,3.3,0.6
		c1.2,0,2.3-0.2,3.3-0.6c1-0.4,1.8-1,2.4-1.7c0.7-0.8,1.2-1.7,1.5-2.8C156.8,423.6,157,422.4,157,421"/>
	<polygon class="st0" points="176.7,429.7 187,429.7 187,434.8 170.4,434.8 170.4,407.2 176.7,407.2 	"/>
	<path class="st0" d="M219.5,421c0,2-0.3,3.8-1,5.6c-0.7,1.7-1.7,3.2-2.9,4.5c-1.2,1.3-2.8,2.3-4.5,3c-1.8,0.7-3.7,1.1-5.9,1.1
		c-2.1,0-4.1-0.4-5.9-1.1c-1.8-0.7-3.3-1.7-4.5-3c-1.3-1.3-2.2-2.8-2.9-4.5c-0.7-1.7-1-3.6-1-5.6c0-2,0.3-3.8,1-5.6
		c0.7-1.7,1.7-3.2,2.9-4.5c1.3-1.3,2.8-2.3,4.5-3c1.8-0.7,3.7-1.1,5.9-1.1c2.1,0,4.1,0.4,5.9,1.1c1.8,0.7,3.3,1.7,4.5,3
		c1.3,1.3,2.2,2.8,2.9,4.5C219.1,417.2,219.5,419,219.5,421 M212.9,421c0-1.4-0.2-2.6-0.5-3.7c-0.4-1.1-0.9-2-1.5-2.8
		c-0.7-0.8-1.5-1.3-2.4-1.7s-2-0.6-3.3-0.6c-1.2,0-2.3,0.2-3.3,0.6c-1,0.4-1.8,1-2.4,1.7c-0.7,0.8-1.2,1.7-1.5,2.8
		c-0.4,1.1-0.5,2.3-0.5,3.7c0,1.4,0.2,2.6,0.5,3.7c0.4,1.1,0.9,2,1.5,2.8c0.7,0.8,1.5,1.3,2.4,1.7c1,0.4,2.1,0.6,3.3,0.6
		c1.2,0,2.3-0.2,3.3-0.6s1.8-1,2.4-1.7c0.7-0.8,1.2-1.7,1.5-2.8C212.8,423.6,212.9,422.4,212.9,421"/>
	<path class="st0" d="M239.3,430.2c0.9,0,1.7-0.1,2.3-0.2c0.7-0.2,1.3-0.4,1.9-0.6v-4.2h-2.7l-0.9-0.3l-0.3-0.8v-3.5h9.8v11.6
		c-0.7,0.5-1.4,1-2.2,1.3c-0.8,0.4-1.6,0.7-2.4,0.9c-0.9,0.2-1.8,0.4-2.8,0.5c-1,0.1-2,0.2-3.1,0.2c-2,0-3.9-0.4-5.6-1.1
		c-1.7-0.7-3.2-1.7-4.5-3c-1.3-1.3-2.2-2.7-3-4.5c-0.7-1.7-1.1-3.6-1.1-5.6c0-2.1,0.3-3.9,1-5.7c0.7-1.7,1.7-3.2,2.9-4.5
		c1.3-1.2,2.8-2.2,4.6-2.9c1.8-0.7,3.8-1,6-1c1.1,0,2.2,0.1,3.2,0.3c1,0.2,1.9,0.5,2.8,0.8c0.9,0.3,1.6,0.7,2.3,1.2
		c0.7,0.5,1.3,0.9,1.9,1.5l-1.9,2.8l-0.6,0.6l-0.8,0.2l-1.2-0.4c-0.5-0.3-1-0.6-1.4-0.8c-0.5-0.2-0.9-0.4-1.4-0.5
		c-0.5-0.1-1-0.2-1.5-0.3c-0.5-0.1-1.1-0.1-1.7-0.1c-1.2,0-2.3,0.2-3.2,0.6c-1,0.4-1.8,1-2.5,1.8c-0.7,0.8-1.2,1.7-1.6,2.8
		c-0.4,1.1-0.6,2.3-0.6,3.6c0,1.5,0.2,2.8,0.6,3.9c0.4,1.1,1,2.1,1.7,2.9c0.7,0.8,1.6,1.4,2.5,1.8
		C237.1,430,238.1,430.2,239.3,430.2"/>
	<path class="st0" d="M269,400.7l-5.6,4.1l-0.9,0.5l-1.1,0.1h-4.7l3.4-3.7l0.5-0.5l0.5-0.3l0.6-0.2l0.8,0H269z M264.1,434.8h-6.4
		v-27.6h6.4V434.8z"/>
	<path class="st0" d="M298.6,434.8h-5c-0.6,0-1-0.1-1.4-0.4l-0.7-1l-1.6-4.8h-10.5l-1.6,4.8l-0.7,1c-0.4,0.3-0.8,0.4-1.3,0.4h-5
		l10.7-27.6h6.5L298.6,434.8z M280.9,424.2h7.5l-2.5-7.6c-0.2-0.5-0.4-1-0.6-1.7c-0.2-0.6-0.4-1.4-0.7-2.1c-0.2,0.8-0.4,1.5-0.6,2.1
		c-0.2,0.7-0.4,1.2-0.6,1.7L280.9,424.2z"/>
	<path class="st0" d="M323,406.9c1.2,0,2.3,0.2,3.2,0.5c0.9,0.4,1.7,0.8,2.4,1.4c0.6,0.6,1.1,1.3,1.5,2c0.4,0.8,0.6,1.6,0.7,2.4
		L327,414l-0.2,0l-0.1,0c-0.5,0-0.9-0.3-1.2-0.8c-0.3-0.7-0.6-1.2-1-1.5c-0.4-0.3-0.9-0.5-1.5-0.5c-0.4,0-0.8,0.1-1.2,0.2l-0.8,0.6
		l-0.5,0.9l-0.2,1.1l0.1,0.9l0.3,0.9l0.6,1l0.9,1.1l6.8,7.2c0.3-0.8,0.6-1.6,0.8-2.4c0.2-0.8,0.3-1.7,0.4-2.6l0.4-0.8l0.8-0.3h3.7
		c0,1.8-0.2,3.6-0.7,5.2c-0.5,1.6-1.2,3.1-2.1,4.4l5.8,6.1h-5.8l-0.8,0l-0.6-0.2l-0.6-0.3l-0.6-0.5l-1.2-1.2
		c-1.2,0.8-2.5,1.5-3.9,1.9c-1.4,0.5-2.9,0.7-4.5,0.7c-1.1,0-2.2-0.2-3.2-0.6c-1.1-0.4-2-0.9-2.8-1.6c-0.8-0.7-1.5-1.5-2-2.5
		c-0.5-1-0.8-2.1-0.8-3.4c0-0.8,0.1-1.6,0.4-2.4c0.3-0.7,0.6-1.4,1.1-2.1c0.5-0.6,1-1.2,1.7-1.7c0.6-0.5,1.4-1,2.1-1.4
		c-0.6-0.9-1-1.8-1.3-2.7c-0.3-0.9-0.4-1.7-0.4-2.6c0-1,0.2-1.9,0.5-2.8c0.4-0.9,0.9-1.6,1.6-2.3c0.7-0.7,1.5-1.2,2.5-1.6
		C320.5,407.1,321.7,406.9,323,406.9 M317.3,426.5c0,0.6,0.1,1.2,0.3,1.6c0.2,0.5,0.4,0.9,0.8,1.3c0.3,0.3,0.8,0.6,1.2,0.8
		c0.5,0.2,1,0.3,1.6,0.3c0.8,0,1.6-0.1,2.4-0.3c0.7-0.2,1.4-0.5,2-0.9l-6.3-6.7c-0.7,0.6-1.2,1.2-1.5,1.9
		C317.4,425.1,317.3,425.8,317.3,426.5"/>
	<path class="st0" d="M42.1,469.3l0.5,0.1l0.4,0.3l2.5,2.7c-1.1,1.5-2.5,2.5-4.2,3.3c-1.7,0.7-3.7,1.1-5.9,1.1c-2.1,0-4-0.4-5.6-1.1
		c-1.7-0.7-3.1-1.7-4.2-3s-2-2.7-2.7-4.5c-0.6-1.7-0.9-3.6-0.9-5.6c0-2.1,0.4-3.9,1.1-5.7c0.7-1.7,1.7-3.2,3-4.5
		c1.3-1.2,2.8-2.2,4.5-2.9c1.8-0.7,3.7-1,5.8-1c1,0,2,0.1,2.9,0.3c0.9,0.2,1.8,0.4,2.6,0.8c0.8,0.3,1.5,0.7,2.2,1.2
		c0.7,0.5,1.3,0.9,1.8,1.5l-2.2,2.9l-0.5,0.5l-0.8,0.2l-0.6-0.2l-0.6-0.4l-0.8-0.5l-1-0.5c-0.4-0.1-0.8-0.3-1.3-0.4
		c-0.5-0.1-1.1-0.2-1.8-0.2c-1.2,0-2.2,0.2-3.2,0.6c-1,0.4-1.8,1-2.5,1.8c-0.7,0.8-1.2,1.7-1.6,2.8c-0.4,1.1-0.6,2.3-0.6,3.7
		c0,1.4,0.2,2.7,0.6,3.8c0.4,1.1,0.9,2,1.6,2.8c0.7,0.7,1.4,1.3,2.3,1.7c0.9,0.4,1.8,0.6,2.8,0.6c0.6,0,1.1,0,1.6-0.1
		c0.5-0.1,0.9-0.2,1.3-0.3l1.2-0.5l1.1-0.8l0.5-0.3L42.1,469.3z"/>
	<path class="st0" d="M79.5,462.6c0,2-0.3,3.8-1,5.6c-0.7,1.7-1.7,3.2-2.9,4.5c-1.2,1.3-2.8,2.3-4.5,3c-1.8,0.7-3.7,1.1-5.9,1.1
		c-2.1,0-4.1-0.4-5.9-1.1c-1.8-0.7-3.3-1.7-4.5-3c-1.3-1.3-2.2-2.8-2.9-4.5c-0.7-1.7-1-3.6-1-5.6c0-2,0.3-3.8,1-5.6
		c0.7-1.7,1.7-3.2,2.9-4.5c1.3-1.3,2.8-2.3,4.5-3c1.8-0.7,3.7-1.1,5.9-1.1c2.1,0,4.1,0.4,5.9,1.1c1.8,0.7,3.3,1.7,4.5,3
		c1.3,1.3,2.2,2.8,2.9,4.5C79.1,458.8,79.5,460.6,79.5,462.6 M72.9,462.6c0-1.4-0.2-2.6-0.5-3.7c-0.4-1.1-0.9-2-1.5-2.8
		c-0.7-0.8-1.5-1.3-2.4-1.7c-1-0.4-2-0.6-3.3-0.6c-1.2,0-2.3,0.2-3.3,0.6c-1,0.4-1.8,1-2.4,1.7c-0.7,0.8-1.2,1.7-1.5,2.8
		c-0.4,1.1-0.5,2.3-0.5,3.7c0,1.4,0.2,2.6,0.5,3.7c0.3,1.1,0.9,2,1.5,2.8c0.7,0.8,1.5,1.3,2.4,1.7s2.1,0.6,3.3,0.6
		c1.2,0,2.3-0.2,3.3-0.6s1.8-1,2.4-1.7c0.7-0.8,1.2-1.7,1.5-2.8C72.8,465.2,72.9,464,72.9,462.6"/>
	<path class="st0" d="M101.2,465.3c0.2,0.5,0.5,1,0.7,1.6c0.2-0.6,0.4-1.1,0.7-1.6c0.2-0.5,0.5-1,0.7-1.5l7.1-13.9l0.4-0.6l0.4-0.3
		l0.6-0.1h0.7h4.9v27.6h-5.6v-15.9c0-0.8,0-1.6,0.1-2.5l-7.3,14.2c-0.2,0.4-0.5,0.8-0.9,1c-0.4,0.2-0.8,0.3-1.3,0.3h-0.9
		c-0.5,0-0.9-0.1-1.3-0.3c-0.4-0.2-0.7-0.6-0.9-1L91.8,458c0,0.4,0.1,0.9,0.1,1.3l0,1.2v15.9h-5.6v-27.6h4.9h0.7l0.6,0.1l0.4,0.3
		l0.4,0.6l7.1,14C100.7,464.3,100.9,464.8,101.2,465.3"/>
	<path class="st0" d="M137.1,471.4c0.9,0,1.6-0.1,2.3-0.4c0.7-0.3,1.2-0.7,1.7-1.2c0.5-0.5,0.8-1.2,1.1-1.9c0.2-0.8,0.4-1.6,0.4-2.6
		v-16.3h6.4v16.3c0,1.7-0.3,3.2-0.8,4.7c-0.5,1.4-1.3,2.6-2.4,3.6c-1,1-2.3,1.8-3.7,2.4c-1.5,0.6-3.1,0.8-4.9,0.8
		c-1.8,0-3.5-0.3-5-0.8c-1.5-0.6-2.7-1.4-3.7-2.4c-1-1-1.8-2.2-2.3-3.6c-0.5-1.4-0.8-3-0.8-4.7v-16.3h6.4v16.3c0,1,0.1,1.8,0.4,2.6
		c0.2,0.8,0.6,1.4,1.1,1.9c0.5,0.5,1,0.9,1.7,1.2C135.5,471.2,136.3,471.4,137.1,471.4"/>
	<path class="st0" d="M161,448.9l0.5,0.1l0.4,0.3l0.5,0.5l13.1,16.6c-0.1-0.5-0.1-1-0.1-1.5c0-0.5,0-1,0-1.4v-14.6h5.6v27.6h-3.3
		c-0.5,0-0.9-0.1-1.2-0.2l-1-0.8l-13-16.4c0,0.5,0.1,0.9,0.1,1.4c0,0.5,0,0.9,0,1.3v14.8h-5.6v-27.6h3.4L161,448.9z"/>
	<rect x="189.9" y="448.8" class="st0" width="6.4" height="27.6"/>
	<path class="st0" d="M230.2,462.6c0,2-0.3,3.8-1,5.5c-0.7,1.7-1.7,3.1-2.9,4.4c-1.3,1.2-2.8,2.2-4.5,2.9c-1.8,0.7-3.7,1-5.9,1
		h-10.7v-27.6h10.7c2.1,0,4.1,0.3,5.9,1s3.3,1.6,4.5,2.9c1.2,1.2,2.2,2.7,2.9,4.4C229.9,458.8,230.2,460.6,230.2,462.6 M223.7,462.6
		c0-1.4-0.2-2.6-0.5-3.7c-0.4-1.1-0.9-2-1.5-2.8c-0.7-0.8-1.5-1.4-2.4-1.8c-1-0.4-2.1-0.6-3.3-0.6h-4.3v17.7h4.3
		c1.2,0,2.3-0.2,3.3-0.6c1-0.4,1.8-1,2.4-1.8c0.7-0.8,1.2-1.7,1.5-2.8C223.5,465.2,223.7,464,223.7,462.6"/>
	<path class="st0" d="M261.6,476.4h-5c-0.6,0-1-0.1-1.4-0.4l-0.8-1l-1.6-4.8h-10.5l-1.6,4.8l-0.7,1c-0.4,0.3-0.8,0.4-1.3,0.4h-5
		l10.7-27.6h6.5L261.6,476.4z M243.9,465.9h7.5l-2.5-7.6c-0.2-0.5-0.4-1-0.6-1.7c-0.2-0.6-0.4-1.4-0.7-2.1c-0.2,0.8-0.4,1.5-0.6,2.1
		c-0.2,0.7-0.4,1.2-0.6,1.7L243.9,465.9z"/>
	<path class="st0" d="M292.6,462.6c0,2-0.3,3.8-1,5.5c-0.7,1.7-1.7,3.1-2.9,4.4c-1.2,1.2-2.8,2.2-4.5,2.9c-1.8,0.7-3.7,1-5.9,1
		h-10.7v-27.6h10.7c2.1,0,4.1,0.3,5.9,1c1.8,0.7,3.3,1.6,4.5,2.9c1.3,1.2,2.2,2.7,2.9,4.4C292.3,458.8,292.6,460.6,292.6,462.6
		 M286.1,462.6c0-1.4-0.2-2.6-0.5-3.7c-0.4-1.1-0.9-2-1.5-2.8c-0.7-0.8-1.5-1.4-2.4-1.8c-1-0.4-2-0.6-3.3-0.6h-4.3v17.7h4.3
		c1.2,0,2.3-0.2,3.3-0.6c1-0.4,1.8-1,2.4-1.8c0.7-0.8,1.2-1.7,1.5-2.8C285.9,465.2,286.1,464,286.1,462.6"/>
	<path class="st1" d="M133.8,66.1V53H51v12.5l0,0.2c0,3.5,2.8,6.4,6.3,6.4h23v80.1h24.2V72.2h23C130.9,72.1,133.7,69.5,133.8,66.1"
		/>
	<path class="st1" d="M218,133.1h-42.5v-21.7h36V93.5h-36V72.2H218c3.6,0,6.4-2.9,6.4-6.5l0-0.1V53h-73.2v99.3h73.2v-12.6l0-0.1
		C224.4,136,221.6,133.2,218,133.1"/>
	<path class="st1" d="M145.6,223.9c0,29-20.5,49.7-54.1,49.7H51v-99.3h40.5C124.8,174.3,145.6,194.8,145.6,223.9 M120.8,223.9
		c0-18.9-9.4-30.4-29.3-30.4H75.3v60.9h16.2C110.3,254.3,120.8,244.1,120.8,223.9"/>
	<path class="st1" d="M306.7,246.5c0.6,0,1.1,0.1,1.7,0.3c0.6,0.2,1.1,0.6,1.6,1.1l9.6,10.1c-4.2,5.5-15.4,16.6-38.2,16.6
		c-30.4,0-50.8-19-50.8-50.8c0-28.1,19.5-50.7,54.5-50.7c21.3,0,33.8,11.8,35.8,13.9l-8.2,10.9c-0.5,0.7-1.1,1.3-1.9,1.8
		c-0.7,0.5-1.7,0.8-3,0.8c-0.9,0-1.7-0.2-2.4-0.6c-4.8-2.7-9.2-6.9-20.5-6.9c-19.7,0-29.6,13.1-29.6,30.8c0,16,8.3,30.9,27.6,30.9
		c9.7,0,14.5-2,19.8-6.6c0.6-0.5,1.2-0.9,1.9-1.2C305.3,246.7,306,246.5,306.7,246.5"/>
	<path class="st1" d="M344.7,223.9c0,9.1-7.4,16.4-16.4,16.4c-9.1,0-16.4-7.4-16.4-16.4c0-9.1,7.4-16.4,16.4-16.4
		C337.3,207.4,344.7,214.8,344.7,223.9"/>
	<path class="st1" d="M213.1,260.8c0-3.5-2.8-6.4-6.3-6.4h-6.7v-60.9h6.6c3.5-0.1,6.3-2.9,6.3-6.4v-12.7h-50.2v12.4l0,0.3
		c0,3.5,2.8,6.4,6.3,6.4h6.6v60.9h-6.7c-3.5,0.1-6.3,2.9-6.3,6.4v12.7h50.2v-12.4L213.1,260.8z"/>
</g>
<g>
</g>
<g>
</g>
<g>
</g>
<g>
</g>
<g>
</g>
<g>
</g>
</svg>
